{"photos":{"page":1,"pages":24537,"perpage":15,"total":"368052","photo":[{"id":"43828217972","owner":"17726320@N03","secret":"71aa124942","server":"861","farm":1,"title":"title","ispublic":1,"isfriend":0,"isfamily":0,"tags":"tags","latitude":"49.289252","longitude":"-123.110245","accuracy":"16","context":0,"place_id":"DqiOzSRUV7Me5iRWAg","woeid":"55998921","geo_is_family":0,"geo_is_friend":0,"geo_is_contact":0,"geo_is_public":1},{"id":"43155687374","owner":"43296902@N00","secret":"9791fe2548","server":"1813","farm":2,"title":"Vancouver Pride 2018","ispublic":1,"isfriend":0,"isfamily":0,"tags":"vancouver pride 2018","latitude":"49.290222","longitude":"-123.133264","accuracy":"16","context":0,"place_id":"I0Y56GNTVLlsrZd5lw","woeid":"26332812","geo_is_family":0,"geo_is_friend":0,"geo_is_contact":0,"geo_is_public":1},{"id":"42968943985","owner":"24223113@N00","secret":"d74113d793","server":"1773","farm":2,"title":"DSC_3983_002","ispublic":1,"isfriend":0,"isfamily":0,"tags":"vancouver buddhist temple japanese pureland buddhism canadian canada powellstreet","latitude":"49.283028","longitude":"-123.093266","accuracy":"16","context":0,"place_id":"Mo188hNTVLnlsyodRg","woeid":"26332808","geo_is_family":0,"geo_is_friend":0,"geo_is_contact":0,"geo_is_public":1},{"id":"43872665511","owner":"24223113@N00","secret":"88aa75f6f3","server":"1798","farm":2,"title":"DSC_3981_001_","ispublic":1,"isfriend":0,"isfamily":0,"tags":"vancouver buddhist temple japanese pureland buddhism canadian canada powellstreet","latitude":"49.282994","longitude":"-123.093255","accuracy":"16","context":0,"place_id":"Mo188hNTVLnlsyodRg","woeid":"26332808","geo_is_family":0,"geo_is_friend":0,"geo_is_contact":0,"geo_is_public":1},{"id":"43824423742","owner":"24223113@N00","secret":"30f3c684bb","server":"1817","farm":2,"title":"DSC_3988_001_","ispublic":1,"isfriend":0,"isfamily":0,"tags":"vancouver buddhist temple japanese pureland buddhism canadian canada powellstreet","latitude":"49.283028","longitude":"-123.093266","accuracy":"16","context":0,"place_id":"Mo188hNTVLnlsyodRg","woeid":"26332808","geo_is_family":0,"geo_is_friend":0,"geo_is_contact":0,"geo_is_public":1},{"id":"28936636357","owner":"24223113@N00","secret":"0cfe7f0fcc","server":"931","farm":1,"title":"Return to Oppenheimer Park","ispublic":1,"isfriend":0,"isfamily":0,"tags":"totem pole vancouver dtes oppenheimer park aboriginal firstnations memorial","latitude":"49.282357","longitude":"-123.094156","accuracy":"16","context":0,"place_id":"Mo188hNTVLnlsyodRg","woeid":"26332808","geo_is_family":0,"geo_is_friend":0,"geo_is_contact":0,"geo_is_public":1},{"id":"29988768938","owner":"45812013@N04","secret":"4a1b2c1d36","server":"1837","farm":2,"title":"traditional german cake  - Stollen aus Deutschland","ispublic":1,"isfriend":0,"isfamily":0,"tags":"stollen kanadareise essen nahrung s\u00fcswaren reisen livingincanada vsco kuchen travel vancouver britishcolumbia kanada ca","latitude":"49.282597","longitude":"-123.118845","accuracy":"16","context":0,"place_id":"opA_01BYU7OacUoyFA","woeid":"91977405","geo_is_family":0,"geo_is_friend":0,"geo_is_contact":0,"geo_is_public":1},{"id":"43857760501","owner":"158068702@N05","secret":"315cee5eb1","server":"934","farm":1,"title":"Skytrain, Vancouver","ispublic":1,"isfriend":0,"isfamily":0,"tags":"vancouver bc canada bw monochrome bandw blackandwhite blacknwhite blackwhite mono monochromatic blackandwhiteworld photography blackandwhitestreet people photo street streetphotography streetphoto streetstories streetsofvancouver candid basajear nexus5","latitude":"49.274933","longitude":"-123.117325","accuracy":"16","context":0,"place_id":"jo.ff55TVLm9xpBwcw","woeid":"26332813","geo_is_family":0,"geo_is_friend":0,"geo_is_contact":0,"geo_is_public":1},{"id":"43140133804","owner":"158068702@N05","secret":"2f8e960a59","server":"1836","farm":2,"title":"Train station, Vancouver","ispublic":1,"isfriend":0,"isfamily":0,"tags":"vancouver bc canada bw monochrome bandw blackandwhite blacknwhite blackwhite mono monochromatic blackandwhiteworld photography blackandwhitestreet people photo street streetphotography streetphoto streetstories streetsofvancouver candid basajear nexus5","latitude":"49.274933","longitude":"-123.117325","accuracy":"16","context":0,"place_id":"jo.ff55TVLm9xpBwcw","woeid":"26332813","geo_is_family":0,"geo_is_friend":0,"geo_is_contact":0,"geo_is_public":1},{"id":"42953524695","owner":"158068702@N05","secret":"4ea79db58d","server":"1820","farm":2,"title":"Train station, Vancouver","ispublic":1,"isfriend":0,"isfamily":0,"tags":"vancouver bc canada bw photography people photo street streetphotography streetphoto streetstories streetsofvancouver candid basajear nexus5","latitude":"49.274933","longitude":"-123.117325","accuracy":"16","context":0,"place_id":"jo.ff55TVLm9xpBwcw","woeid":"26332813","geo_is_family":0,"geo_is_friend":0,"geo_is_contact":0,"geo_is_public":1},{"id":"43806349302","owner":"24223113@N00","secret":"f5fb290bcf","server":"1837","farm":2,"title":"Yokai master","ispublic":1,"isfriend":0,"isfamily":0,"tags":"japanese supernatural ghost monsters yokai zack davisson firehalltheatre vancouver powellstreet festival 2018 kappa","latitude":"49.282175","longitude":"-123.097772","accuracy":"16","context":0,"place_id":"Mo188hNTVLnlsyodRg","woeid":"26332808","geo_is_family":0,"geo_is_friend":0,"geo_is_contact":0,"geo_is_public":1},{"id":"43137057504","owner":"24223113@N00","secret":"11a5287b7e","server":"1772","farm":2,"title":"Yokai talk","ispublic":1,"isfriend":0,"isfamily":0,"tags":"japanese supernatural ghost monsters yokai zack davisson firehalltheatre vancouver powellstreet festival 2018","latitude":"49.282161","longitude":"-123.097826","accuracy":"16","context":0,"place_id":"Mo188hNTVLnlsyodRg","woeid":"26332808","geo_is_family":0,"geo_is_friend":0,"geo_is_contact":0,"geo_is_public":1},{"id":"43806199902","owner":"24223113@N00","secret":"2396b56050","server":"938","farm":1,"title":"DSC_3815_002","ispublic":1,"isfriend":0,"isfamily":0,"tags":"japanese dance otowa ryu traditional 2018 powellstreet festival canadian vancouver","latitude":"49.282805","longitude":"-123.094832","accuracy":"16","context":0,"place_id":"Mo188hNTVLnlsyodRg","woeid":"26332808","geo_is_family":0,"geo_is_friend":0,"geo_is_contact":0,"geo_is_public":1},{"id":"42950613315","owner":"24223113@N00","secret":"3795708f8a","server":"858","farm":1,"title":"DSC_3825_001_","ispublic":1,"isfriend":0,"isfamily":0,"tags":"japanese dance otowa ryu traditional 2018 powellstreet festival canadian vancouver","latitude":"49.282833","longitude":"-123.094854","accuracy":"16","context":0,"place_id":"Mo188hNTVLnlsyodRg","woeid":"26332808","geo_is_family":0,"geo_is_friend":0,"geo_is_contact":0,"geo_is_public":1},{"id":"43824017622","owner":"64752540@N00","secret":"1a7a7ee688","server":"1834","farm":2,"title":"Summer Daydreams","ispublic":1,"isfriend":0,"isfamily":0,"tags":"man bicycle bench lifeonaparkbench downtown urban city vancouver nap asleep reclining candid canong9x bc canada","latitude":"49.283467","longitude":"-123.120217","accuracy":"16","context":0,"place_id":"I0Y56GNTVLlsrZd5lw","woeid":"26332812","geo_is_family":0,"geo_is_friend":0,"geo_is_contact":0,"geo_is_public":1}]},"stat":"ok"}